<?xml version="1.0" encoding="utf-8"?>
<!-- Generator: Adobe Illustrator 22.0.1, SVG Export Plug-In . SVG Version: 6.00 Build 0)  -->
<svg version="1.1" id="Layer_1" xmlns="http://www.w3.org/2000/svg" xmlns:xlink="http://www.w3.org/1999/xlink" x="0px" y="0px"
	 viewBox="0 0 228.4 238" style="enable-background:new 0 0 228.4 238;" xml:space="preserve">
<style type="text/css">
	.st0{fill:none;}
	.st1{clip-path:url(#SVGID_2_);}
	.st2{fill:#B1DEF2;}
	.st3{fill:#D6E8FF;}
	.st4{fill:#FFFFFF;}
	.st5{clip-path:url(#SVGID_4_);}
	.st6{fill:#FFC280;}
	.st7{fill:#231F20;}
	.st8{fill:#5E2924;}
	.st9{fill:#B74F46;}
	.st10{fill:#F9F8EF;}
	.st11{fill:#F9F7D4;}
	.st12{fill:#FBB766;}
	.st13{fill:#F2AE64;}
	.st14{fill:#D69A59;}
</style>
<rect class="st0" width="228" height="238"/>
<g>
	<g>
		<defs>
			<circle id="SVGID_1_" cx="114" cy="117" r="100.5"/>
		</defs>
		<clipPath id="SVGID_2_">
			<use xlink:href="#SVGID_1_"  style="overflow:visible;"/>
		</clipPath>
		<g class="st1">
			<g>
				<rect x="-926.3" y="-281.1" class="st2" width="2458.5" height="754.1"/>
			</g>
			<g>
				<rect x="-926.3" y="65.7" class="st3" width="2458.5" height="13.1"/>
			</g>
			<g>
				<rect x="59.5" y="-257.6" class="st4" width="12.1" height="704.6"/>
			</g>
		</g>
	</g>
	<g>
		<defs>
			<circle id="SVGID_3_" cx="114" cy="117" r="100.5"/>
		</defs>
		<clipPath id="SVGID_4_">
			<use xlink:href="#SVGID_3_"  style="overflow:visible;"/>
		</clipPath>
		<g class="st5">
			<g>
				<path class="st6" d="M135.5,337.2c21.6,25.2,2.4,98.5-4.9,168.2c-5.3,51.2-8.8,75.1-8.8,75.1h-9.3L116,374l-8.9-0.1L104,579
					H92.6c0,0-0.9-24.1-4.1-75C84,431.9,66.3,360.2,87,336.7L135.5,337.2z"/>
			</g>
			<g>
				<path class="st7" d="M87.3,590.4h20.1c0.1,0,0.2-0.1,0.2-0.2v-2.9c0-5.9-4.8-10.6-10.6-10.6l0,0c-5.5,0-9.9,4.4-9.9,9.9v3.6
					C87.1,590.3,87.2,590.4,87.3,590.4z"/>
			</g>
			<g>
				<path class="st7" d="M109.3,590.4h20.1c0.1,0,0.2-0.1,0.2-0.2v-2.9c0-5.9-4.8-10.6-10.6-10.6l0,0c-5.5,0-9.9,4.4-9.9,9.9v3.6
					C109,590.3,109.1,590.4,109.3,590.4z"/>
			</g>
			<g>
				<path class="st6" d="M144.6,199.7c0,0,0,0.1,0,0.2v0c-0.2,1-1.1,5.3-2.3,11.7c-4,20.6-11.6,62.3-12,77.5
					c-0.4,16.9-1.2,22.3,0.7,31.5c0.8,4.2,2.2,9.2,4.4,16.5H86c0.3-0.8,1.8-7.8,3.2-16.5c1.5-9.3,2.9-20.6,2.4-28.4
					c-1-18.3-9-57-13.5-77.4c-1.5-6.7-2.5-11.4-2.9-12.8c-0.1-0.2-0.1-0.3-0.1-0.4l0,0c0-0.3,0-0.5,0-0.8
					c0.2-13.6,6.9-22.4,18.8-24.8c0,0,0,0,0,0c2.2-0.5,4.7-0.7,7.3-0.7h16.5c5.8,0,10.8,1,14.9,2.9c7.5,3.6,11.9,10.6,11.9,21.3
					C144.6,199.5,144.6,199.6,144.6,199.7z"/>
			</g>
			<g>
				<path class="st8" d="M136.7,465.1c0,0,7.2-27.3,9.9-63.2c1.7-22.8,0.6-43.3-0.4-47.8c-5.6-25.4-5.8-25.2-13.9-39.7H90.4
					c-0.5,0.8-11.6,17.2-15.3,42.3c-0.6,4.1-2.8,21.6-1.3,46.7c2.2,36.7,10.3,61.7,10.3,61.7L136.7,465.1z"/>
			</g>
			<g>
				<path class="st9" d="M101.4,175.3l-5.1,8.9l-0.8,7.6c-2.9-0.3-15.3-0.5-17.3,20.9l-0.2,2.1l-0.8,10.4l-0.1,1.9l-9.7,129.5h0
					l-8.7-0.8l3.4-144.3c1-11.5,5-20.4,11.8-26.5c0.4-0.4,0.8-0.7,1.2-1c5.9-4.9,13.4-7.1,18.8-8c0,0,0,0,0,0
					C98,175.3,100.9,175.3,101.4,175.3z"/>
			</g>
			<g>
				<path class="st10" d="M144.6,199.7l-1.5,21.2v0l-7.1,99.7H86.2l-8.8-95.5l-1.7-19l-0.4-4.6l0,0c0-0.3,0-0.5,0-0.8
					c0.2-13.6,6.9-22.4,18.8-24.8c0,0,0,0,0,0c2.2-0.5,4.7-0.7,7.3-0.7h16.5c5.8,0,10.8,1,14.9,2.9c7.5,3.6,11.9,10.6,11.9,21.3
					C144.6,199.5,144.6,199.6,144.6,199.7z"/>
			</g>
			<g>
				<path class="st6" d="M67.5,356.7l-3,32.7c0,0-11.2-2.1-12.4-17.8c-0.8-10.6,6.7-15.7,6.7-15.7L67.5,356.7z"/>
			</g>
			<g>
				<path class="st9" d="M118.9,175.7l5.1,8.9l0.8,7.6c2.9-0.3,15.3-0.5,17.3,20.9l0.2,2.1l0.8,10.4l0.1,1.9l9.7,129.5h0l8.7-0.8
					l-3.4-144.3c-1-11.5-5-20.4-11.8-26.5c-0.4-0.4-0.7-0.7-1.2-1c-4.7-3.2-13.4-7.1-18.8-8c0,0,0,0,0,0
					C122.4,175.7,119.5,175.6,118.9,175.7z"/>
			</g>
			<g>
				<path class="st6" d="M152.8,357l3,32.7c0,0,11.2-2.1,12.4-17.8c0.8-10.6-6.7-15.7-6.7-15.7L152.8,357z"/>
			</g>
			<g>
				<path class="st9" d="M145.7,184.8l-1,14.6l0,0.5v0l-1.5,21v0c0,0-5.9,89.5-5.7,96.6c0.2,7.1,6.7,22.9,6.7,22.9H79
					c0,0,4.9-13.4,5.3-23.9c0.4-10.5-7.1-89.4-7.1-89.4l-0.1-0.6l-2-20.2l-1.1-4l-0.1-1.2l0-16.1c0.4-0.4,0.8-0.7,1.2-1
					c5.9-4.9,13.4-7.1,18.8-8c0,0,0,0,0,0c2.2-0.5,4.7-0.7,7.3-0.7h16.5c3.4,0,6.5,0.3,9.4,1c2,0.5,3.8,1.1,5.5,1.9
					C137,179.5,141.7,181.5,145.7,184.8z"/>
			</g>
			<g>
				<path class="st11" d="M127.2,176.3l-15.8,76.5L94,176c2.2-0.5,4.7-0.7,7.3-0.7h16.5C121.2,175.3,124.4,175.6,127.2,176.3z"/>
			</g>
			<g>
				<polygon class="st6" points="118.8,175.3 118.8,157.5 102.7,157.5 102.7,175.3 110.8,182.4 				"/>
			</g>
			<g>
				<polygon class="st8" points="111.3,322.4 102.1,342.5 120.6,342.5 				"/>
			</g>
			<g>
				<circle class="st7" cx="141.4" cy="58.8" r="23.4"/>
			</g>
			<g>
				<circle class="st12" cx="133.7" cy="67.5" r="12.6"/>
			</g>
			<g>
				<path class="st7" d="M78.8,119.8c0,0-17.2-33.6,5-57.8c24.5-26.8,64.3-6.6,67.6,26.8c1.3,13.4-10.9,31-10.9,31H78.8z"/>
			</g>
			<g>
				<ellipse class="st6" cx="80.4" cy="127.8" rx="8.8" ry="10"/>
			</g>
			<g>
				<ellipse class="st6" cx="142.6" cy="127.9" rx="8.8" ry="10"/>
			</g>
			<g>
				<path class="st6" d="M109,77.9c0,0-21.7-0.5-22.2,7.3c-0.6,7.8-0.8,7.8-0.9,11.6c-7.3,9.9-3,46-3,46
					c2.4,22.6,29.1,27.9,29.1,27.9s27-8.4,28.2-28.5c0,0,5.6-33.6-6.6-52.2C128.8,82.9,119.2,77.9,109,77.9z"/>
			</g>
			<g>
				<g>
					<path class="st7" d="M89.2,108.6c0.1,0,2.7-1.2,6.5-1.3c3.7-0.1,6.4,1,6.5,1c0.5,0.2,0.7,0.7,0.5,1.2c-0.2,0.5-0.7,0.7-1.2,0.5
						c0,0-2.4-0.9-5.8-0.9C92.4,109.4,88.7,108.8,89.2,108.6z"/>
				</g>
			</g>
			<g>
				<g>
					<path class="st7" d="M128.2,109.4c-3.3-0.2-5.8,0.6-5.8,0.6c-0.5,0.2-1-0.1-1.2-0.6c-0.2-0.5,0.1-1,0.6-1.2
						c0.1,0,2.8-1,6.5-0.7c3.7,0.2,6.3,1.5,6.4,1.5C135.2,109.3,131.5,109.6,128.2,109.4z"/>
				</g>
			</g>
			<g>
				<path class="st13" d="M111,138.7c-1,0-2.1-0.4-3.2-1.4c-0.4-0.4-0.4-1.1,0-1.5c0.4-0.4,1.1-0.4,1.5,0c1.8,1.8,3.5,0.1,3.7-0.1
					c0.4-0.4,1.1-0.4,1.5,0c0.4,0.4,0.4,1.1,0,1.5C113.9,137.9,112.5,138.7,111,138.7z"/>
			</g>
			<g>
				<path class="st7" d="M101.1,123.6l-11.5-1.9c0,0,0.9-1.8,6.8-1.2C99.9,120.8,101.1,123.6,101.1,123.6z"/>
			</g>
			<g>
				<path class="st7" d="M121.1,123.6l11.5-1.9c0,0-0.9-1.8-6.8-1.2C122.2,120.8,121.1,123.6,121.1,123.6z"/>
			</g>
			<g>
				<path class="st14" d="M111.5,153.8c-7.3,0-12.1-4.5-12.3-4.7c-0.4-0.3-0.4-0.9,0-1.3c0.3-0.4,0.9-0.4,1.3,0c0,0,4.5,4.2,11,4.2
					c7.6,0,10.5-3.2,10.5-3.3c0.3-0.4,0.9-0.4,1.3-0.1c0.4,0.3,0.4,0.9,0.1,1.3C123.3,150.1,120,153.8,111.5,153.8z"/>
			</g>
			<g>
				<path class="st11" d="M97.2,180.9"/>
			</g>
			<g>
				<path class="st11" d="M102.8,170c-11.4,1.2-18.4,18.2-18.4,18.2l26.4-5.8L102.8,170z"/>
			</g>
			<g>
				<path class="st11" d="M118.6,170c11.4,1.2,18.4,18.2,18.4,18.2l-26.4-5.8L118.6,170z"/>
			</g>
			<g>
				<path class="st7" d="M88.6,82.1c0,0,12.5,1.7,17.9,2.7c18.7,3.2,26.1,15.5,26.1,15.5s1.8-17.6-18.1-23.8
					C102.6,72.7,90.6,74.9,88.6,82.1z"/>
			</g>
			<g>
				<polygon class="st7" points="81.6,111.5 81.6,164.7 77.6,113.8 				"/>
			</g>
			<g>
				<polygon class="st7" points="140.7,111.2 140.7,164.5 144.6,110.8 				"/>
			</g>
		</g>
	</g>
	<g>
		<path class="st4" d="M114,23c51.8,0,94,42.2,94,94s-42.2,94-94,94s-94-42.2-94-94S62.2,23,114,23 M114,15C57.7,15,12,60.7,12,117
			s45.7,102,102,102s102-45.7,102-102S170.3,15,114,15L114,15z"/>
	</g>
</g>
<rect y="12" class="st0" width="228" height="605"/>
</svg>
